The number of ways can you lay out a deck of cards in a line is: 
80658175170943878571660636856403766975289505440883277824000000000000
The number of 5  card hands from a deck of 52  cards is: 
2598960
