*** Diana Bell, HW6                       ***
*** Run on GL server, with time_matmul.py ***

multiply N by N matrices, N=100
initialized
N=100, c=3600, raw time=0.330811
order N^3 normalized time=330.811 

multiply N by N matrices, N=200
initialized
N=200, c=7200, raw time=2.69446
order N^3 normalized time=336.808 

multiply N by N matrices, N=400
initialized
N=400, c=14400, raw time=24.3278
order N^3 normalized time=380.122 

* Differences in normalized time may be due to the time it took to initialize the matrices.
